Project 3
…
Project 3

This is the dataset you will be working with:

food <- readr::read_csv("https://wilkelab.org/DSC385/datasets/food_coded.csv",
                        na = c("", "NA", "#N/A", "Personal","Unknown", "nan", "NaN"))

food

## # A tibble: 125 x 61
##    GPA   Gender breakfast calories_chicken calories_day calories_scone coffee
##    <chr>  <dbl>     <dbl>            <dbl>        <dbl>          <dbl>  <dbl>
##  1 2.4        2         1              430           NA            315      1
##  2 3.654      1         1              610            3            420      2
##  3 3.3        1         1              720            4            420      2
##  4 3.2        1         1              430            3            420      2
##  5 3.5        1         1              720            2            420      2
##  6 2.25       1         1              610            3            980      2
##  7 3.8        2         1              610            3            420      2
##  8 3.3        1         1              720            3            420      1
##  9 3.3        1         1              430           NA            420      1
## 10 3.3        1         1              430            3            315      2
## # ... with 115 more rows, and 54 more variables: comfort_food <chr>,
## #   comfort_food_reasons <chr>, comfort_food_reasons_coded <dbl>, cook <dbl>,
## #   comfort_food_reasons_coded_1 <dbl>, cuisine <dbl>, diet_current <chr>,
## #   diet_current_coded <dbl>, drink <dbl>, eating_changes <chr>,
## #   eating_changes_coded <dbl>, eating_changes_coded1 <dbl>, eating_out <dbl>,
## #   employment <dbl>, ethnic_food <dbl>, exercise <dbl>,
## #   father_education <dbl>, father_profession <chr>, fav_cuisine <chr>,
## #   fav_cuisine_coded <dbl>, fav_food <dbl>, food_childhood <chr>, fries <dbl>,
## #   fruit_day <dbl>, grade_level <dbl>, greek_food <dbl>,
…
